bluepill_blink/wokwi.vcd
$version Generated by Wokwi.com $end
$date Wed, 01 Apr 2026 09:22:25 GMT $end
$timescale 1ns $end
$scope module logic $end
$var wire 1 ! D0 $end
$upscope $end
$enddefinitions $end
#0
#824025
1!
#1153275
0!
#1170650
1!
#1188000
0!
#1214050
1!
#1222725
0!
#1231425
1!
#1251100
0!
#1259800
1!
#1268475
0!
#1285825
1!
#1294525
0!
#1303200
1!
#1320550
0!
#1329250
1!
#1348925
0!
#1366300
1!
#1374975
0!
#1392350
1!
#1418375
0!
#1427075
1!
#1447000
0!
#1455700
1!
#1473050
0!
#1490425
1!
#1516450
0!
#1525150
1!
#1544825
0!
#1570875
1!
#1579550
0!
#1588250
1!
#1614275
0!
#1622975
1!
#1642650
0!
#1694750
1!
#1703425
0!
#1720800
1!
#1740475
0!
#1749175
1!
#1757850
0!
#1792575
1!
#1809925
0!
#1818625
1!
#1838300
0!
#1881725
1!
#1907750
0!
#1916450
1!
#1936125
0!
#1979550
1!
#2005575
0!
#2014275
1!
#2033950
0!
#2060000
1!
#2077375
0!
#2086050
1!
#2103400
0!
#2112100
1!
#2131775
0!
#2140475
1!
#2149150
0!
#2166500
1!
#2175200
0!
#2183875
1!
#2201225
0!
#2209925
1!
#2229600
0!
#2238300
1!
#2255650
0!
#2281700
1!
#2299050
0!
#2307750
1!
#2327425
0!
#2336125
1!
#2344800
0!
#2379525
1!
#2396875
0!
#2405575
1!
#2425500
0!
#2451550
1!
#2460225
0!
#2468925
1!
#2494950
0!
#2503650
1!
#2523325
0!
#2532025
1!
#2540700
0!
#2558050
1!
#2566750
0!
#2575425
1!
#2592775
0!
#2601475
1!
#2621150
0!
#2629850
1!
#2664575
0!
#2673250
1!
#2690600
0!
#2699300
1!
#2718975
0!
#2736350
1!
#2762400
0!
#2771075
1!
#2788425
0!
#2797125
1!
#2816800
0!
#2868900
1!
#2877575
0!
#2894950
1!
#2914625
0!
#2923325
1!
#2940675
0!
#2958050
1!
#2984075
0!
#2992775
1!
#3012450
0!
#3038500
1!
#3047175
0!
#3055875
1!
#3081900
0!
#3090600
1!
#3110275
0!
#3118975
1!
#3127650
0!
#3162375
1!
#3179725
0!
#3188425
1!
#3208100
0!
#3225475
1!
#3234150
0!
#3251525
1!
#3277550
0!
#3286250
1!
#3305925
0!
#3331975
1!
#3340650
0!
#3349350
1!
#3375375
0!
#3384075
1!
#3404000
0!
#3412700
1!
#3421375
0!
#3438725
1!
#3447425
0!
#3456100
1!
#3473450
0!
#3482150
1!
#3501825
0!
#3519200
1!
#3545250
0!
#3553925
1!
#3571275
0!
#3579975
1!
#3599650
0!
#3608350
1!
#3634375
0!
#3651750
1!
#3669100
0!
#3677800
1!
#3697475
0!
#3706175
1!
#3714850
0!
#3749575
1!
#3758250
0!
#3775625
1!
#3795300
0!
#3804000
1!
#3812675
0!
#3821350
1!
#3838725
0!
#3873450
1!
#3893125
0!
#3910500
1!
#3919175
0!
#3927850
1!
#3936550
0!
#3971275
1!
#200611550
0!
#200637600
1!
#200654975
0!
#200672325
1!
#200681000
0!
#200689700
1!
#200709375
0!
#200718075
1!
#200752800
0!
#200761475
1!
#200778825
0!
#200787525
1!
#200807200
0!
#200815900
1!
#200850625
0!
#200859300
1!
#200876650
0!
#200885350
1!
#200905025
0!
#200948450
1!
#200974475
0!
#200983175
1!
#201002850
0!
#201054950
1!
#201063625
0!
#201081000
1!
#201100675
0!
#201118050
1!
#201126725
0!
#201144100
1!
#201161450
0!
#201178825
1!
#201198500
0!
#201241925
1!
#201259275
0!
#201276650
1!
#201296325
0!
#201339750
1!
#201357100
0!
#201374475
1!
#201394400
0!
#201403100
1!
#201411775
0!
#201420450
1!
#201437825
0!
#201472550
1!
#201492225
0!
#201509600
1!
#201518275
0!
#201526950
1!
#201535650
0!
#201570375
1!
#400584300
0!
#400610350
1!
#400627725
0!
#400645075
1!
#400653750
0!
#400662450
1!
#400682125
0!
#400690825
1!
#400725550
0!
#400734225
1!
#400751575
0!
#400760275
1!
#400779950
0!
#400788650
1!
#400823375
0!
#400832050
1!
#400849400
0!
#400858100
1!
#400877775
0!
#400921200
1!
#400947225
0!
#400955925
1!
#400975600
0!
#401027700
1!
#401036375
0!
#401053750
1!
#401073425
0!
#401099475
1!
#401108150
0!
#401116850
1!
#401134200
0!
#401151575
1!
#401171250
0!
#401214675
1!
#401232025
0!
#401249400
1!
#401269075
0!
#401312500
1!
#401329850
0!
#401347225
1!
#401366900
0!
#401375600
1!
#401384275
0!
#401392950
1!
#401410325
0!
#401445050
1!
#401464725
0!
#401482100
1!
#401490775
0!
#401499450
1!
#401508150
0!
#401542875
1!
#600560525
0!
#600586575
1!
#600603950
0!
#600621300
1!
#600629975
0!
#600638675
1!
#600658350
0!
#600667050
1!
#600701775
0!
#600710450
1!
#600727800
0!
#600736500
1!
#600756175
0!
#600764875
1!
#600799600
0!
#600808275
1!
#600825625
0!
#600834325
1!
#600854000
0!
#600897425
1!
#600923450
0!
#600932150
1!
#600951825
0!
#601003925
1!
#601012600
0!
#601029975
1!
#601049650
0!
#601067025
1!
#601084375
0!
#601093075
1!
#601110425
0!
#601127800
1!
#601147475
0!
#601190900
1!
#601208250
0!
#601225625
1!
#601245300
0!
#601288725
1!
#601306075
0!
#601323450
1!
#601343375
0!
#601352075
1!
#601360750
0!
#601369425
1!
#601386800
0!
#601421525
1!
#601441200
0!
#601458575
1!
#601467250
0!
#601475925
1!
#601484625
0!
#601519350
1!
#800533300
0!
#800559350
1!
#800576725
0!
#800594075
1!
#800602750
0!
#800611450
1!
#800631125
0!
#800639825
1!
#800674550
0!
#800683225
1!
#800700575
0!
#800709275
1!
#800728950
0!
#800737650
1!
#800772375
0!
#800781050
1!
#800798400
0!
#800807100
1!
#800826775
0!
#800870200
1!
#800896225
0!
#800904925
1!
#800924600
0!
#800976700
1!
#800985375
0!
#801002750
1!
#801022425
0!
#801057150
1!
#801083200
0!
#801100575
1!
#801120250
0!
#801163675
1!
#801181025
0!
#801198400
1!
#801218075
0!
#801261500
1!
#801278850
0!
#801296225
1!
#801315900
0!
#801324600
1!
#801333275
0!
#801341950
1!
#801359325
0!
#801394050
1!
#801413725
0!
#801431100
1!
#801439775
0!
#801448450
1!
#801457150
0!
#801491875
1!
#1000518025
0!
#1000544075
1!
#1000561450
0!
#1000578800
1!
#1000587475
0!
#1000596175
1!
#1000615850
0!
#1000624550
1!
#1000659275
0!
#1000667950
1!
#1000685300
0!
#1000694000
1!
#1000713675
0!
#1000722375
1!
#1000757100
0!
#1000765775
1!
#1000783125
0!
#1000791825
1!
#1000811500
0!
#1000854925
1!
#1000880950
0!
#1000889650
1!
#1000909325
0!
#1000961425
1!
#1000970100
0!
#1000987475
1!
#1001007150
0!
#1001015850
1!
#1001024525
0!
#1001050575
1!
#1001067925
0!
#1001085300
1!
#1001104975
0!
#1001148400
1!
#1001165750
0!
#1001183125
1!
#1001202800
0!
#1001246225
1!
#1001263575
0!
#1001280950
1!
#1001300875
0!
#1001344300
1!
#1001361650
0!
#1001379025
1!
#1001398700
0!
#1001407400
1!
#1001416075
0!
#1001424750
1!
#1001442125
0!
#1001476850
1!
#1001496525
0!
#1001513900
1!
#1001522575
0!
#1001531250
1!
#1001539950
0!
#1001574675
1!
#1200492025
0!
#1200518075
1!
#1200535450
0!
#1200552800
1!
#1200561475
0!
#1200570175
1!
#1200589850
0!
#1200598550
1!
#1200633275
0!
#1200641950
1!
#1200659300
0!
#1200668000
1!
#1200687675
0!
#1200696375
1!
#1200731100
0!
#1200739775
1!
#1200757125
0!
#1200765825
1!
#1200785500
0!
#1200828925
1!
#1200854950
0!
#1200863650
1!
#1200883325
0!
#1200935425
1!
#1200944100
0!
#1200961475
1!
#1200981150
0!
#1200989850
1!
#1200998525
0!
#1201024575
1!
#1201041925
0!
#1201059300
1!
#1201078975
0!
#1201096350
1!
#1201105025
0!
#1201122400
1!
#1201139750
0!
#1201157125
1!
#1201176800
0!
#1201220225
1!
#1201237575
0!
#1201254950
1!
#1201274875
0!
#1201318300
1!
#1201335650
0!
#1201353025
1!
#1201372700
0!
#1201381400
1!
#1201390075
0!
#1201398750
1!
#1201416125
0!
#1201450850
1!
#1201470525
0!
#1201487900
1!
#1201496575
0!
#1201505250
1!
#1201513950
0!
#1201548675
1!
#1400469800
0!
#1400495850
1!
#1400513225
0!
#1400530575
1!
#1400539250
0!
#1400547950
1!
#1400567625
0!
#1400576325
1!
#1400611050
0!
#1400619725
1!
#1400637075
0!
#1400645775
1!
#1400665450
0!
#1400674150
1!
#1400708875
0!
#1400717550
1!
#1400734900
0!
#1400743600
1!
#1400763275
0!
#1400806700
1!
#1400832725
0!
#1400841425
1!
#1400861100
0!
#1400913200
1!
#1400921875
0!
#1400939250
1!
#1400958925
0!
#1400967625
1!
#1400976300
0!
#1401002350
1!
#1401019700
0!
#1401037075
1!
#1401056750
0!
#1401082800
1!
#1401091475
0!
#1401100175
1!
#1401117525
0!
#1401134900
1!
#1401154575
0!
#1401198000
1!
#1401215350
0!
#1401232725
1!
#1401252400
0!
#1401295825
1!
#1401313175
0!
#1401330550
1!
#1401350225
0!
#1401358925
1!
#1401367600
0!
#1401376275
1!
#1401393650
0!
#1401428375
1!
#1401448050
0!
#1401465425
1!
#1401474100
0!
#1401482775
1!
#1401491475
0!
#1401526200
1!
#1600443550
0!
#1600469600
1!
#1600486975
0!
#1600504325
1!
#1600513000
0!
#1600521700
1!
#1600541375
0!
#1600550075
1!
#1600584800
0!
#1600593475
1!
#1600610825
0!
#1600619525
1!
#1600639200
0!
#1600647900
1!
#1600682625
0!
#1600691300
1!
#1600708650
0!
#1600717350
1!
#1600737025
0!
#1600780450
1!
#1600806475
0!
#1600815175
1!
#1600834850
0!
#1600886950
1!
#1600895625
0!
#1600913000
1!
#1600932675
0!
#1600941375
1!
#1600950050
0!
#1600976100
1!
#1600993450
0!
#1601010825
1!
#1601030500
0!
#1601047875
1!
#1601065225
0!
#1601073925
1!
#1601091275
0!
#1601108650
1!
#1601128325
0!
#1601171750
1!
#1601189100
0!
#1601206475
1!
#1601226400
0!
#1601269825
1!
#1601287175
0!
#1601304550
1!
#1601324225
0!
#1601332925
1!
#1601341600
0!
#1601350275
1!
#1601367650
0!
#1601402375
1!
#1601422050
0!
#1601439425
1!
#1601448100
0!
#1601456775
1!
#1601465475
0!
#1601500200
1!
#1800417525
0!
#1800443575
1!
#1800460950
0!
#1800478300
1!
#1800486975
0!
#1800495675
1!
#1800515350
0!
#1800524050
1!
#1800558775
0!
#1800567450
1!
#1800584800
0!
#1800593500
1!
#1800613175
0!
#1800621875
1!
#1800656600
0!
#1800665275
1!
#1800682625
0!
#1800691325
1!
#1800711000
0!
#1800754425
1!
#1800780450
0!
#1800789150
1!
#1800808825
0!
#1800860925
1!
#1800869600
0!
#1800886975
1!
#1800906650
0!
#1800915350
1!
#1800924025
0!
#1800950075
1!
#1800967425
0!
#1800984800
1!
#1801004475
0!
#1801039200
1!
#1801065250
0!
#1801082625
1!
#1801102300
0!
#1801145725
1!
#1801163075
0!
#1801180450
1!
#1801200375
0!
#1801243800
1!
#1801261150
0!
#1801278525
1!
#1801298200
0!
#1801306900
1!
#1801315575
0!
#1801324250
1!
#1801341625
0!
#1801376350
1!
#1801396025
0!
#1801413400
1!
#1801422075
0!
#1801430750
1!
#1801439450
0!
#1801474175
1!
#2000395275
0!
#2000421325
1!
#2000438700
0!
#2000456050
1!
#2000464725
0!
#2000473425
1!
#2000493100
0!
#2000501800
1!
#2000536525
0!
#2000545200
1!
#2000562550
0!
#2000571250
1!
#2000590925
0!
#2000599625
1!
#2000634350
0!
#2000643025
1!
#2000660375
0!
#2000669075
1!
#2000688750
0!
#2000732175
1!
#2000758200
0!
#2000766900
1!
#2000786575
0!
#2000838675
1!
#2000847350
0!
#2000864725
1!
#2000884400
0!
#2000901775
1!
#2000910450
0!
#2000927825
1!
#2000945175
0!
#2000962550
1!
#2000982225
0!
#2001025650
1!
#2001043000
0!
#2001060375
1!
#2001080050
0!
#2001123475
1!
#2001140825
0!
#2001158200
1!
#2001178125
0!
#2001221550
1!
#2001238900
0!
#2001256275
1!
#2001275950
0!
#2001284650
1!
#2001293325
0!
#2001302000
1!
#2001319375
0!
#2001354100
1!
#2001373775
0!
#2001391150
1!
#2001399825
0!
#2001408500
1!
#2001417200
0!
#2001451925
1!
#2200369275
0!
#2200395325
1!
#2200412700
0!
#2200430050
1!
#2200438725
0!
#2200447425
1!
#2200467100
0!
#2200475800
1!
#2200510525
0!
#2200519200
1!
#2200536550
0!
#2200545250
1!
#2200564925
0!
#2200573625
1!
#2200608350
0!
#2200617025
1!
#2200634375
0!
#2200643075
1!
#2200662750
0!
#2200706175
1!
#2200732200
0!
#2200740900
1!
#2200760575
0!
#2200812675
1!
#2200821350
0!
#2200838725
1!
#2200858400
0!
#2200875775
1!
#2200884450
0!
#2200901825
1!
#2200919175
0!
#2200936550
1!
#2200956225
0!
#2200973600
1!
#2200982275
0!
#2200999650
1!
#2201017000
0!
#2201034375
1!
#2201054050
0!
#2201097475
1!
#2201114825
0!
#2201132200
1!
#2201152125
0!
#2201195550
1!
#2201212900
0!
#2201230275
1!
#2201249950
0!
#2201258650
1!
#2201267325
0!
#2201276000
1!
#2201293375
0!
#2201328100
1!
#2201347775
0!
#2201365150
1!
#2201373825
0!
#2201382500
1!
#2201391200
0!
#2201425925
1!
#2400343275
0!
#2400369325
1!
#2400386700
0!
#2400404050
1!
#2400412725
0!
#2400421425
1!
#2400441100
0!
#2400449800
1!
#2400484525
0!
#2400493200
1!
#2400510550
0!
#2400519250
1!
#2400538925
0!
#2400547625
1!
#2400582350
0!
#2400591025
1!
#2400608375
0!
#2400617075
1!
#2400636750
0!
#2400680175
1!
#2400706200
0!
#2400714900
1!
#2400734575
0!
#2400786675
1!
#2400795350
0!
#2400812725
1!
#2400832400
0!
#2400849775
1!
#2400858450
0!
#2400875825
1!
#2400893175
0!
#2400910550
1!
#2400930225
0!
#2400956275
1!
#2400964950
0!
#2400973650
1!
#2400991000
0!
#2401008375
1!
#2401028050
0!
#2401071475
1!
#2401088825
0!
#2401106200
1!
#2401126125
0!
#2401169550
1!
#2401186900
0!
#2401204275
1!
#2401223950
0!
#2401232650
1!
#2401241325
0!
#2401250000
1!
#2401267375
0!
#2401302100
1!
#2401321775
0!
#2401339150
1!
#2401347825
0!
#2401356500
1!
#2401365200
0!
#2401399925
1!
#2600317275
0!
#2600343325
1!
#2600360700
0!
#2600378050
1!
#2600386725
0!
#2600395425
1!
#2600415100
0!
#2600423800
1!
#2600458525
0!
#2600467200
1!
#2600484550
0!
#2600493250
1!
#2600512925
0!
#2600521625
1!
#2600556350
0!
#2600565025
1!
#2600582375
0!
#2600591075
1!
#2600610750
0!
#2600654175
1!
#2600680200
0!
#2600688900
1!
#2600708575
0!
#2600760675
1!
#2600769350
0!
#2600786725
1!
#2600806400
0!
#2600823775
1!
#2600832450
0!
#2600849825
1!
#2600867175
0!
#2600884550
1!
#2600904225
0!
#2600921600
1!
#2600938950
0!
#2600947650
1!
#2600965000
0!
#2600982375
1!
#2601002050
0!
#2601045475
1!
#2601062825
0!
#2601080200
1!
#2601100125
0!
#2601143550
1!
#2601160900
0!
#2601178275
1!
#2601197950
0!
#2601206650
1!
#2601215325
0!
#2601224000
1!
#2601241375
0!
#2601276100
1!
#2601295775
0!
#2601313150
1!
#2601321825
0!
#2601330500
1!
#2601339200
0!
#2601373925
1!
#2704085525
1!
