bluepill_blink/wokwi.vcd
$version Generated by Wokwi.com $end
$date Wed, 01 Apr 2026 10:31:35 GMT $end
$timescale 1ns $end
$scope module logic $end
$var wire 1 ! D0 $end
$upscope $end
$enddefinitions $end
#0
0!
#866025
1!
#1195025
0!
#1212400
1!
#1229750
0!
#1255800
1!
#1264475
0!
#1273175
1!
#1292850
0!
#1301550
1!
#1310225
0!
#1327575
1!
#1336275
0!
#1344950
1!
#1362300
0!
#1371000
1!
#1395400
0!
#1412775
1!
#1421450
0!
#1438825
1!
#1464850
0!
#1473550
1!
#1493225
0!
#1501925
1!
#1519275
0!
#1536650
1!
#1562675
0!
#1571375
1!
#1591050
0!
#1617100
1!
#1625775
0!
#1634475
1!
#1660500
0!
#1669200
1!
#1688875
0!
#1740975
1!
#1749650
0!
#1767025
1!
#1786700
0!
#1795400
1!
#1804075
0!
#1838800
1!
#1856150
0!
#1864850
1!
#1884525
0!
#1927950
1!
#1953975
0!
#1962675
1!
#1982350
0!
#2025775
1!
#2051800
0!
#2060500
1!
#2080175
0!
#2106225
1!
#2123600
0!
#2132275
1!
#2149625
0!
#2158325
1!
#2178000
0!
#2186700
1!
#2195375
0!
#2212725
1!
#2221425
0!
#2230100
1!
#2247450
0!
#2256150
1!
#2275825
0!
#2284525
1!
#2301875
0!
#2327925
1!
#2345275
0!
#2353975
1!
#2373650
0!
#2382350
1!
#2391025
0!
#2425750
1!
#2443100
0!
#2451800
1!
#2471475
0!
#2497525
1!
#2506200
0!
#2514900
1!
#2540925
0!
#2549625
1!
#2569300
0!
#2578000
1!
#2586675
0!
#2604025
1!
#2612725
0!
#2621400
1!
#2638750
0!
#2647450
1!
#2667125
0!
#2675825
1!
#2710550
0!
#2719225
1!
#2736575
0!
#2745275
1!
#2764950
0!
#2782325
1!
#2808375
0!
#2817050
1!
#2834400
0!
#2843100
1!
#2862775
0!
#2914875
1!
#2923550
0!
#2940925
1!
#2960600
0!
#2969300
1!
#2986650
0!
#3004025
1!
#3030050
0!
#3038750
1!
#3058425
0!
#3084475
1!
#3093150
0!
#3101850
1!
#3127875
0!
#3136575
1!
#3156250
0!
#3164950
1!
#3173625
0!
#3208350
1!
#3225700
0!
#3234400
1!
#3254075
0!
#3271450
1!
#3280125
0!
#3297500
1!
#3323525
0!
#3332225
1!
#3351900
0!
#3377950
1!
#3386625
0!
#3395325
1!
#3421350
0!
#3430050
1!
#3449975
0!
#3458675
1!
#3467350
0!
#3484700
1!
#3493400
0!
#3502075
1!
#3519425
0!
#3528125
1!
#3547800
0!
#3565175
1!
#3591225
0!
#3599900
1!
#3617250
0!
#3625950
1!
#3645625
0!
#3654325
1!
#3680350
0!
#3697725
1!
#3715075
0!
#3723775
1!
#3743450
0!
#3752150
1!
#3760825
0!
#3795550
1!
#3804225
0!
#3821600
1!
#3841275
0!
#3849975
1!
#3858650
0!
#3867325
1!
#3884700
0!
#3919425
1!
#3939100
0!
#3956475
1!
#3965150
0!
#3973825
1!
#3982525
0!
#4017250
1!
#6166683400
1!
