bluepill_blink/wokwi.vcd
$version Generated by Wokwi.com $end
$date Wed, 01 Apr 2026 10:46:08 GMT $end
$timescale 1ns $end
$scope module logic $end
$var wire 1 ! D0 $end
$upscope $end
$enddefinitions $end
#0
#33347125
1!
#33355800
0!
#33373175
1!
#33390525
0!
#33399225
1!
#33419150
0!
#33427850
1!
#33436525
0!
#33445200
1!
#33462575
0!
#33497300
1!
#33516975
0!
#33534350
1!
#33543025
0!
#33551700
1!
#33560400
0!
#33595125
1!
#33657550
0!
#33700975
1!
#33709650
0!
#33718325
1!
#33727000
0!
#33735700
1!
#33755375
0!
#33772750
1!
#33781425
0!
#33798800
1!
#33824825
0!
#33833525
1!
#33853200
0!
#33861900
1!
#33870575
0!
#33879250
1!
#33887925
0!
#33905300
1!
#33922650
0!
#33931350
1!
#33951025
0!
#33959725
1!
#33977075
0!
#33994450
1!
#34020475
0!
#34029175
1!
#34048850
0!
#34057550
1!
#34074900
0!
#34092275
1!
#34118300
0!
#34127000
1!
#34146675
0!
#34155375
1!
#34164050
0!
#34172725
1!
#34181400
0!
#34198775
1!
#34216125
0!
#34224825
1!
#34244500
0!
#34270550
1!
#34279225
0!
#34296600
1!
#34313950
0!
#34322650
1!
#34342325
0!
#34351025
1!
#34359700
0!
#34368375
1!
#34385750
0!
#34420475
1!
#34440400
0!
#34457775
1!
#34466450
0!
#34475125
1!
#34483825
0!
#34518550
1!
#34580975
0!
#34624400
1!
#34633075
0!
#34641750
1!
#34650425
0!
#34659125
1!
#34678800
0!
#34696175
1!
#34704850
0!
#34722225
1!
#34748250
0!
#34756950
1!
#34776625
0!
#34785325
1!
#34794000
0!
#34802675
1!
#34811350
0!
#34828725
1!
#34846075
0!
#34854775
1!
#34874450
0!
#34883150
1!
#34900500
0!
#34917875
1!
#34943900
0!
#34952600
1!
#34972275
0!
#34980975
1!
#34998325
0!
#35015700
1!
#35041725
0!
#35050425
1!
#35070100
0!
#35078800
1!
#35087475
0!
#35096150
1!
#35104825
0!
#35122200
1!
#35139550
0!
#35148250
1!
#35167925
0!
#35193975
1!
#35202650
0!
#35220025
1!
#35237375
0!
#35246075
1!
#35265750
0!
#35274450
1!
#35283125
0!
#35291800
1!
#35309175
0!
#35343900
1!
#35363575
0!
#35380950
1!
#35389625
0!
#35398300
1!
#35407000
0!
#35441725
1!
#35508650
0!
#35552075
1!
#35560750
0!
#35569425
1!
#35578100
0!
#35586800
1!
#35606475
0!
#35623850
1!
#35632525
0!
#35649900
1!
#35675925
0!
#35684625
1!
#35704300
0!
#35713000
1!
#35721675
0!
#35730350
1!
#35739025
0!
#35756400
1!
#35773750
0!
#35782450
1!
#35802125
0!
#35810825
1!
#35828175
0!
#35845550
1!
#35871575
0!
#35880275
1!
#35899950
0!
#35908650
1!
#35926000
0!
#35943375
1!
#35969400
0!
#35978100
1!
#35997775
0!
#36006475
1!
#36015150
0!
#36023825
1!
#36032500
0!
#36049875
1!
#36067225
0!
#36075925
1!
#36095600
0!
#36121650
1!
#36130325
0!
#36147700
1!
#36165050
0!
#36173750
1!
#36193425
0!
#36202125
1!
#36210800
0!
#36219475
1!
#36236850
0!
#36271575
1!
#36291250
0!
#36308625
1!
#36317300
0!
#36325975
1!
#36334675
0!
#36369400
1!
#36436325
0!
#36479750
1!
#36488425
0!
#36497100
1!
#36505775
0!
#36514475
1!
#36534150
0!
#36551525
1!
#36560200
0!
#36577575
1!
#36603600
0!
#36612300
1!
#36631975
0!
#36640675
1!
#36649350
0!
#36658025
1!
#36666700
0!
#36684075
1!
#36701425
0!
#36710125
1!
#36729800
0!
#36738500
1!
#36755850
0!
#36773225
1!
#36799250
0!
#36807950
1!
#36827625
0!
#36836325
1!
#36853675
0!
#36871050
1!
#36897075
0!
#36905775
1!
#36925450
0!
#36934150
1!
#36942825
0!
#36951500
1!
#36960175
0!
#36977550
1!
#36994900
0!
#37003600
1!
#37023275
0!
#37049325
1!
#37058000
0!
#37075375
1!
#37092725
0!
#37101425
1!
#37121100
0!
#37129800
1!
#37138475
0!
#37147150
1!
#37164525
0!
#37199250
1!
#37218925
0!
#37236300
1!
#37244975
0!
#37253650
1!
#37262350
0!
#37297075
1!
#37359500
0!
#37402925
1!
#37411600
0!
#37420275
1!
#37428950
0!
#37437650
1!
#37457325
0!
#37474700
1!
#37483375
0!
#37500750
1!
#37526775
0!
#37535475
1!
#37555150
0!
#37563850
1!
#37572525
0!
#37581200
1!
#37589875
0!
#37607250
1!
#37624600
0!
#37633300
1!
#37652975
0!
#37661675
1!
#37679025
0!
#37696400
1!
#37722425
0!
#37731125
1!
#37750800
0!
#37759500
1!
#37776850
0!
#37794225
1!
#37820250
0!
#37828950
1!
#37848625
0!
#37857325
1!
#37866000
0!
#37874675
1!
#37883350
0!
#37900725
1!
#37918075
0!
#37926775
1!
#37946450
0!
#37972500
1!
#37981175
0!
#37998550
1!
#38015900
0!
#38024600
1!
#38044275
0!
#38052975
1!
#38061650
0!
#38070325
1!
#38087700
0!
#38122425
1!
#38142100
0!
#38159475
1!
#38168150
0!
#38176825
1!
#38185525
0!
#38220250
1!
#38282675
0!
#38326100
1!
#38334775
0!
#38343450
1!
#38352125
0!
#38360825
1!
#38385025
0!
#38402400
1!
#38411075
0!
#38428450
1!
#38454475
0!
#38463175
1!
#38482850
0!
#38491550
1!
#38500225
0!
#38508900
1!
#38517575
0!
#38534950
1!
#38552300
0!
#38561000
1!
#38580675
0!
#38589375
1!
#38606725
0!
#38624100
1!
#38650125
0!
#38658825
1!
#38678500
0!
#38687200
1!
#38704550
0!
#38721925
1!
#38747950
0!
#38756650
1!
#38776325
0!
#38785025
1!
#38793700
0!
#38802375
1!
#38811050
0!
#38828425
1!
#38845775
0!
#38854475
1!
#38874150
0!
#38900200
1!
#38908875
0!
#38926250
1!
#38943600
0!
#38952300
1!
#38971975
0!
#38980675
1!
#38989350
0!
#38998025
1!
#39015400
0!
#39050125
1!
#39069800
0!
#39087175
1!
#39095850
0!
#39104525
1!
#39113225
0!
#39147950
1!
#39210375
0!
#39253800
1!
#39262475
0!
#39271150
1!
#39279825
0!
#39288525
1!
#39308200
0!
#39325575
1!
#39334250
0!
#39351625
1!
#39377650
0!
#39386350
1!
#39406275
0!
#39414975
1!
#39423650
0!
#39432325
1!
#39441000
0!
#39458375
1!
#39475725
0!
#39484425
1!
#39504100
0!
#39512800
1!
#39530150
0!
#39547525
1!
#39573550
0!
#39582250
1!
#39601925
0!
#39610625
1!
#39627975
0!
#39645350
1!
#39671375
0!
#39680075
1!
#39699750
0!
#39708450
1!
#39717125
0!
#39725800
1!
#39734475
0!
#39751850
1!
#39769200
0!
#39777900
1!
#39797575
0!
#39823625
1!
#39832300
0!
#39849675
1!
#39867025
0!
#39875725
1!
#39895400
0!
#39904100
1!
#39912775
0!
#39921450
1!
#39938825
0!
#39973550
1!
#39993225
0!
#40010600
1!
#40019275
0!
#40027950
1!
#40036650
0!
#40071375
1!
#40133800
0!
#40177225
1!
#40185900
0!
#40194575
1!
#40203250
0!
#40211950
1!
#40231625
0!
#40249000
1!
#40257675
0!
#40275050
1!
#40301075
0!
#40309775
1!
#40329450
0!
#40338150
1!
#40346825
0!
#40355500
1!
#40364175
0!
#40381550
1!
#40398900
0!
#40407600
1!
#40427525
0!
#40436225
1!
#40453575
0!
#40470950
1!
#40496975
0!
#40505675
1!
#40525350
0!
#40534050
1!
#40551400
0!
#40568775
1!
#40594800
0!
#40603500
1!
#40623175
0!
#40631875
1!
#40640550
0!
#40649225
1!
#40657900
0!
#40675275
1!
#40692625
0!
#40701325
1!
#40721000
0!
#40747050
1!
#40755725
0!
#40773100
1!
#40790450
0!
#40799150
1!
#40818825
0!
#40827525
1!
#40836200
0!
#40844875
1!
#40862250
0!
#40896975
1!
#40916650
0!
#40934025
1!
#40942700
0!
#40951375
1!
#40960075
0!
#40994800
1!
#41057225
0!
#41100650
1!
#41109325
0!
#41118000
1!
#41126675
0!
#41135375
1!
#41155050
0!
#41172425
1!
#41181100
0!
#41198475
1!
#41224500
0!
#41233200
1!
#41252875
0!
#41261575
1!
#41270250
0!
#41278925
1!
#41287600
0!
#41304975
1!
#41322325
0!
#41331025
1!
#41350700
0!
#41359400
1!
#41376750
0!
#41394125
1!
#41420150
0!
#41428850
1!
#41448775
0!
#41457475
1!
#41474825
0!
#41492200
1!
#41518225
0!
#41526925
1!
#41546600
0!
#41555300
1!
#41563975
0!
#41572650
1!
#41581325
0!
#41598700
1!
#41616050
0!
#41624750
1!
#41644425
0!
#41670475
1!
#41679150
0!
#41696525
1!
#41713875
0!
#41722575
1!
#41742250
0!
#41750950
1!
#41759625
0!
#41768300
1!
#41785675
0!
#41820400
1!
#41840075
0!
#41857450
1!
#41866125
0!
#41874800
1!
#41883500
0!
#41918225
1!
#41980650
0!
#42024075
1!
#42032750
0!
#42041425
1!
#42050100
0!
#42058800
1!
#42078475
0!
#42095850
1!
#42104525
0!
#42121900
1!
#42147925
0!
#42156625
1!
#42176300
0!
#42185000
1!
#42193675
0!
#42202350
1!
#42211025
0!
#42228400
1!
#42245750
0!
#42254450
1!
#42274125
0!
#42282825
1!
#42300175
0!
#42317550
1!
#42343575
0!
#42352275
1!
#42371950
0!
#42380650
1!
#42398000
0!
#42415375
1!
#42441400
0!
#42450100
1!
#42469775
0!
#42478475
1!
#42487150
0!
#42495825
1!
#42504500
0!
#42521875
1!
#42539225
0!
#42547925
1!
#42567600
0!
#42593650
1!
#42602325
0!
#42619700
1!
#42637050
0!
#42645750
1!
#42665425
0!
#42674125
1!
#42682800
0!
#42691475
1!
#42708850
0!
#42743575
1!
#42763250
0!
#42780625
1!
#42789300
0!
#42797975
1!
#42806675
0!
#42841400
1!
#42903825
0!
#42947250
1!
#42955925
0!
#42964600
1!
#42973275
0!
#42981975
1!
#43001650
0!
#43019025
1!
#43027700
0!
#43045075
1!
#43071100
0!
#43079800
1!
#43099475
0!
#43108175
1!
#43116850
0!
#43125525
1!
#43134200
0!
#43151575
1!
#43168925
0!
#43177625
1!
#43197300
0!
#43206000
1!
#43223350
0!
#43240725
1!
#43266750
0!
#43275450
1!
#43295125
0!
#43303825
1!
#43321175
0!
#43338550
1!
#43364575
0!
#43373275
1!
#43393200
0!
#43401900
1!
#43410575
0!
#43419250
1!
#43427925
0!
#43445300
1!
#43462650
0!
#43471350
1!
#43491025
0!
#43517075
1!
#43525750
0!
#43543125
1!
#43560475
0!
#43569175
1!
#43588850
0!
#43597550
1!
#43606225
0!
#43614900
1!
#43632275
0!
#43667000
1!
#43686675
0!
#43704050
1!
#43712725
0!
#43721400
1!
#43730100
0!
#43764825
1!
#43827250
0!
#43870675
1!
#43879350
0!
#43888025
1!
#43896700
0!
#43905400
1!
#43925075
0!
#43942450
1!
#43951125
0!
#43968500
1!
#43994525
0!
#44003225
1!
#44022900
0!
#44031600
1!
#44040275
0!
#44048950
1!
#44057625
0!
#44075000
1!
#44092350
0!
#44101050
1!
#44120725
0!
#44129425
1!
#44146775
0!
#44164150
1!
#44190175
0!
#44198875
1!
#44218550
0!
#44227250
1!
#44244600
0!
#44261975
1!
#44288000
0!
#44296700
1!
#44316375
0!
#44325075
1!
#44333750
0!
#44342425
1!
#44351100
0!
#44368475
1!
#44385825
0!
#44394525
1!
#44414450
0!
#44440500
1!
#44449175
0!
#44466550
1!
#44483900
0!
#44492600
1!
#44512275
0!
#44520975
1!
#44529650
0!
#44538325
1!
#44555700
0!
#44590425
1!
#44610100
0!
#44627475
1!
#44636150
0!
#44644825
1!
#44653525
0!
#44688250
1!
#44750675
0!
#44794100
1!
#44802775
0!
#44811450
1!
#44820125
0!
#44828825
1!
#44848500
0!
#44865875
1!
#44874550
0!
#44891925
1!
#44917950
0!
#44926650
1!
#44946325
0!
#44955025
1!
#44963700
0!
#44972375
1!
#44981050
0!
#44998425
1!
#45015775
0!
#45024475
1!
#45044150
0!
#45052850
1!
#45070200
0!
#45087575
1!
#45113600
0!
#45122300
1!
#45141975
0!
#45150675
1!
#45168025
0!
#45185400
1!
#45211425
0!
#45220125
1!
#45239800
0!
#45248500
1!
#45257175
0!
#45265850
1!
#45274525
0!
#45291900
1!
#45309250
0!
#45317950
1!
#45337625
0!
#45363675
1!
#45372350
0!
#45389725
1!
#45407075
0!
#45415775
1!
#45435450
0!
#45444150
1!
#45452825
0!
#45461500
1!
#45478875
0!
#45513600
1!
#45533275
0!
#45550650
1!
#45559325
0!
#45568000
1!
#45576700
0!
#45611425
1!
#45673850
0!
#45717275
1!
#45725950
0!
#45734625
1!
#45743300
0!
#45752000
1!
#45771675
0!
#45789050
1!
#45797725
0!
#45815100
1!
#45841125
0!
#45849825
1!
#45869500
0!
#45878200
1!
#45886875
0!
#45895550
1!
#45904225
0!
#45921600
1!
#45938950
0!
#45947650
1!
#45967325
0!
#45976025
1!
#45993375
0!
#46010750
1!
#46036775
0!
#46045475
1!
#46065150
0!
#46073850
1!
#46091200
0!
#46108575
1!
#46134600
0!
#46143300
1!
#46162975
0!
#46171675
1!
#46180350
0!
#46189025
1!
#46197700
0!
#46215075
1!
#46232425
0!
#46241125
1!
#46260800
0!
#46286850
1!
#46295525
0!
#46312900
1!
#46330250
0!
#46338950
1!
#46358625
0!
#46367325
1!
#46376000
0!
#46384675
1!
#46402050
0!
#46436775
1!
#46456700
0!
#46474075
1!
#46482750
0!
#46491425
1!
#46500125
0!
#46534850
1!
#46597275
0!
#46640700
1!
#46649375
0!
#46658050
1!
#46666725
0!
#46675425
1!
#46695100
0!
#46712475
1!
#46721150
0!
#46738525
1!
#46764550
0!
#46773250
1!
#46792925
0!
#46801625
1!
#46810300
0!
#46818975
1!
#46827650
0!
#46845025
1!
#46862375
0!
#46871075
1!
#46890750
0!
#46899450
1!
#46916800
0!
#46934175
1!
#46960200
0!
#46968900
1!
#46988575
0!
#46997275
1!
#47014625
0!
#47032000
1!
#47058025
0!
#47066725
1!
#47086400
0!
#47095100
1!
#47103775
0!
#47112450
1!
#47121125
0!
#47138500
1!
#47155850
0!
#47164550
1!
#47184225
0!
#47210275
1!
#47218950
0!
#47236325
1!
#47253675
0!
#47262375
1!
#47282050
0!
#47290750
1!
#47299425
0!
#47308100
1!
#47325475
0!
#47360200
1!
#47384400
0!
#47401775
1!
#47410450
0!
#47419125
1!
#47427825
0!
#47462550
1!
#47524975
0!
#47568400
1!
#47577075
0!
#47585750
1!
#47594425
0!
#47603125
1!
#47622800
0!
#47640175
1!
#47648850
0!
#47666225
1!
#47692250
0!
#47700950
1!
#47720625
0!
#47729325
1!
#47738000
0!
#47746675
1!
#47755350
0!
#47772725
1!
#47790075
0!
#47798775
1!
#47818450
0!
#47827150
1!
#47844500
0!
#47861875
1!
#47887900
0!
#47896600
1!
#47916275
0!
#47924975
1!
#47942325
0!
#47959700
1!
#47985725
0!
#47994425
1!
#48014100
0!
#48022800
1!
#48031475
0!
#48040150
1!
#48048825
0!
#48066200
1!
#48083550
0!
#48092250
1!
#48111925
0!
#48137975
1!
#48146650
0!
#48164025
1!
#48181375
0!
#48190075
1!
#48209750
0!
#48218450
1!
#48227125
0!
#48235800
1!
#48253175
0!
#48287900
1!
#48307575
0!
#48324950
1!
#48333625
0!
#48342300
1!
#48351000
0!
#48385725
1!
#48452900
0!
#48496325
1!
#48505000
0!
#48513675
1!
#48522350
0!
#48531050
1!
#48550725
0!
#48568100
1!
#48576775
0!
#48594150
1!
#48620175
0!
#48628875
1!
#48648550
0!
#48657250
1!
#48665925
0!
#48674600
1!
#48683275
0!
#48700650
1!
#48718000
0!
#48726700
1!
#48746375
0!
#48755075
1!
#48772425
0!
#48789800
1!
#48815825
0!
#48824525
1!
#48844200
0!
#48852900
1!
#48870250
0!
#48887625
1!
#48913650
0!
#48922350
1!
#48942025
0!
#48950725
1!
#48959400
0!
#48968075
1!
#48976750
0!
#48994125
1!
#49011475
0!
#49020175
1!
#49039850
0!
#49065900
1!
#49074575
0!
#49091950
1!
#49109300
0!
#49118000
1!
#49137675
0!
#49146375
1!
#49155050
0!
#49163725
1!
#49181100
0!
#49215825
1!
#49235500
0!
#49252875
1!
#49261550
0!
#49270225
1!
#49278925
0!
#49313650
1!
#49380650
0!
#49424075
1!
#49432750
0!
#49441425
1!
#49450100
0!
#49458800
1!
#49478475
0!
#49495850
1!
#49504525
0!
#49521900
1!
#49547925
0!
#49556625
1!
#49576300
0!
#49585000
1!
#49593675
0!
#49602350
1!
#49611025
0!
#49628400
1!
#49645750
0!
#49654450
1!
#49674125
0!
#49682825
1!
#49700175
0!
#49717550
1!
#49743575
0!
#49752275
1!
#49771950
0!
#49780650
1!
#49798000
0!
#49815375
1!
#49841400
0!
#49850100
1!
#49869775
0!
#49878475
1!
#49887150
0!
#49895825
1!
#49904500
0!
#49921875
1!
#49939225
0!
#49947925
1!
#49967600
0!
#49993650
1!
#50002325
0!
#50019700
1!
#50037050
0!
#50045750
1!
#50065425
0!
#50074125
1!
#50082800
0!
#50091475
1!
#50108850
0!
#50143575
1!
#50163250
0!
#50180625
1!
#50189300
0!
#50197975
1!
#50206675
0!
#50241400
1!
#50303825
0!
#50347250
1!
#50355925
0!
#50364600
1!
#50373275
0!
#50381975
1!
#50401900
0!
#50419275
1!
#50427950
0!
#50445325
1!
#50471350
0!
#50480050
1!
#50499725
0!
#50508425
1!
#50517100
0!
#50525775
1!
#50534450
0!
#50551825
1!
#50569175
0!
#50577875
1!
#50597550
0!
#50606250
1!
#50623600
0!
#50640975
1!
#50667000
0!
#50675700
1!
#50695375
0!
#50704075
1!
#50721425
0!
#50738800
1!
#50764825
0!
#50773525
1!
#50793200
0!
#50801900
1!
#50810575
0!
#50819250
1!
#50827925
0!
#50845300
1!
#50862650
0!
#50871350
1!
#50891025
0!
#50917075
1!
#50925750
0!
#50943125
1!
#50960475
0!
#50969175
1!
#50988850
0!
#50997550
1!
#51006225
0!
#51014900
1!
#51032275
0!
#51067000
1!
#51086675
0!
#51104050
1!
#51112725
0!
#51121400
1!
#51130100
0!
#51164825
1!
#51227250
0!
#51270675
1!
#51279350
0!
#51288025
1!
#51296700
0!
#51305400
1!
#51325075
0!
#51342450
1!
#51351125
0!
#51368500
1!
#51394525
0!
#51403225
1!
#51422900
0!
#51431600
1!
#51440275
0!
#51448950
1!
#51457625
0!
#51475000
1!
#51492350
0!
#51501050
1!
#51520725
0!
#51529425
1!
#51546775
0!
#51564150
1!
#51590175
0!
#51598875
1!
#51618550
0!
#51627250
1!
#51644600
0!
#51661975
1!
#51688000
0!
#51696700
1!
#51716375
0!
#51725075
1!
#51733750
0!
#51742425
1!
#51751100
0!
#51768475
1!
#51785825
0!
#51794525
1!
#51814200
0!
#51840250
1!
#51848925
0!
#51866300
1!
#51883650
0!
#51892350
1!
#51912025
0!
#51920725
1!
#51929400
0!
#51938075
1!
#51955450
0!
#51990175
1!
#52009850
0!
#52027225
1!
#52035900
0!
#52044575
1!
#52053275
0!
#52088000
1!
#52150425
0!
#52193850
1!
#52202525
0!
#52211200
1!
#52219875
0!
#52228575
1!
#52248250
0!
#52265625
1!
#52274300
0!
#52291675
1!
#52317700
0!
#52326400
1!
#52346075
0!
#52354775
1!
#52363450
0!
#52372125
1!
#52380800
0!
#52398175
1!
#52415525
0!
#52424225
1!
#52444150
0!
#52452850
1!
#52470200
0!
#52487575
1!
#52513600
0!
#52522300
1!
#52541975
0!
#52550675
1!
#52568025
0!
#52585400
1!
#52611425
0!
#52620125
1!
#52639800
0!
#52648500
1!
#52657175
0!
#52665850
1!
#52674525
0!
#52691900
1!
#52709250
0!
#52717950
1!
#52737625
0!
#52763675
1!
#52772350
0!
#52789725
1!
#52807075
0!
#52815775
1!
#52835450
0!
#52844150
1!
#52852825
0!
#52861500
1!
#52878875
0!
#52913600
1!
#52933275
0!
#52950650
1!
#52959325
0!
#52968000
1!
#52976700
0!
#53011425
1!
#53073850
0!
#53117275
1!
#53125950
0!
#53134625
1!
#53143300
0!
#53152000
1!
#53171675
0!
#53189050
1!
#53197725
0!
#53215100
1!
#53241125
0!
#53249825
1!
#53269500
0!
#53278200
1!
#53286875
0!
#53295550
1!
#53304225
0!
#53321600
1!
#53338950
0!
#53347650
1!
#53367325
0!
#53376025
1!
#53393375
0!
#53410750
1!
#53436775
0!
#53445475
1!
#53465400
0!
#53474100
1!
#53491450
0!
#53508825
1!
#53534850
0!
#53543550
1!
#53563225
0!
#53571925
1!
#53580600
0!
#53589275
1!
#53597950
0!
#53615325
1!
#53632675
0!
#53641375
1!
#53661050
0!
#53687100
1!
#53695775
0!
#53713150
1!
#53730500
0!
#53739200
1!
#53758875
0!
#53767575
1!
#53776250
0!
#53784925
1!
#53802300
0!
#53837025
1!
#53856700
0!
#53874075
1!
#53882750
0!
#53891425
1!
#53900125
0!
#53934850
1!
#53997275
0!
#54040700
1!
#54049375
0!
#54058050
1!
#54066725
0!
#54075425
1!
#54095100
0!
#54112475
1!
#54121150
0!
#54138525
1!
#54164550
0!
#54173250
1!
#54192925
0!
#54201625
1!
#54210300
0!
#54218975
1!
#54227650
0!
#54245025
1!
#54262375
0!
#54271075
1!
#54290750
0!
#54299450
1!
#54316800
0!
#54334175
1!
#54360200
0!
#54368900
1!
#54388575
0!
#54397275
1!
#54414625
0!
#54432000
1!
#54458025
0!
#54466725
1!
#54486400
0!
#54495100
1!
#54503775
0!
#54512450
1!
#54521125
0!
#54538500
1!
#54555850
0!
#54564550
1!
#54584225
0!
#54610275
1!
#54618950
0!
#54636325
1!
#54653675
0!
#54662375
1!
#54682050
0!
#54690750
1!
#54699425
0!
#54708100
1!
#54725475
0!
#54760200
1!
#54779875
0!
#54797250
1!
#54805925
0!
#54814600
1!
#54823300
0!
#54858025
1!
#54920450
0!
#54963875
1!
#54972550
0!
#54981225
1!
#54989900
0!
#54998600
1!
#55018275
0!
#55035650
1!
#55044325
0!
#55061700
1!
#55087725
0!
#55096425
1!
#55116100
0!
#55124800
1!
#55133475
0!
#55142150
1!
#55150825
0!
#55168200
1!
#55185550
0!
#55194250
1!
#55213925
0!
#55222625
1!
#55239975
0!
#55257350
1!
#55283375
0!
#55292075
1!
#55311750
0!
#55320450
1!
#55337800
0!
#55355175
1!
#55381200
0!
#55389900
1!
#55409825
0!
#55418525
1!
#55427200
0!
#55435875
1!
#55444550
0!
#55461925
1!
#55479275
0!
#55487975
1!
#55507650
0!
#55533700
1!
#55542375
0!
#55559750
1!
#55577100
0!
#55585800
1!
#55605475
0!
#55614175
1!
#55622850
0!
#55631525
1!
#55648900
0!
#55683625
1!
#55703300
0!
#55720675
1!
#55729350
0!
#55738025
1!
#55746725
0!
#55781450
1!
#55843875
0!
#55887300
1!
#55895975
0!
#55904650
1!
#55913325
0!
#55922025
1!
#55941700
0!
#55959075
1!
#55967750
0!
#55985125
1!
#56011150
0!
#56019850
1!
#56039525
0!
#56048225
1!
#56056900
0!
#56065575
1!
#56074250
0!
#56091625
1!
#56108975
0!
#56117675
1!
#56137350
0!
#56146050
1!
#56163400
0!
#56180775
1!
#56206800
0!
#56215500
1!
#56235175
0!
#56243875
1!
#56261225
0!
#56278600
1!
#56304625
0!
#56313325
1!
#56333000
0!
#56341700
1!
#56350375
0!
#56359050
1!
#56367725
0!
#56385100
1!
#56402450
0!
#56411150
1!
#56431075
0!
#56457125
1!
#56465800
0!
#56483175
1!
#56500525
0!
#56509225
1!
#56528900
0!
#56537600
1!
#56546275
0!
#56554950
1!
#56572325
0!
#56607050
1!
#56626725
0!
#56644100
1!
#56652775
0!
#56661450
1!
#56670150
0!
#56704875
1!
#56767300
0!
#56810725
1!
#56819400
0!
#56828075
1!
#56836750
0!
#56845450
1!
#56865125
0!
#56882500
1!
#56891175
0!
#56908550
1!
#56934575
0!
#56943275
1!
#56962950
0!
#56971650
1!
#56980325
0!
#56989000
1!
#56997675
0!
#57015050
1!
#57032400
0!
#57041100
1!
#57060775
0!
#57069475
1!
#57086825
0!
#57104200
1!
#57130225
0!
#57138925
1!
#57158600
0!
#57167300
1!
#57184650
0!
#57202025
1!
#57228050
0!
#57236750
1!
#57256425
0!
#57265125
1!
#57273800
0!
#57282475
1!
#57291150
0!
#57308525
1!
#57325875
0!
#57334575
1!
#57354250
0!
#57380300
1!
#57388975
0!
#57406350
1!
#57423700
0!
#57432400
1!
#57452075
0!
#57460775
1!
#57469450
0!
#57478125
1!
#57495500
0!
#57530225
1!
#57549900
0!
#57567275
1!
#57575950
0!
#57584625
1!
#57593325
0!
#57628050
1!
#57690475
0!
#57733900
1!
#57742575
0!
#57751250
1!
#57759925
0!
#57768625
1!
#57788300
0!
#57805675
1!
#57814350
0!
#57831725
1!
#57857750
0!
#57866450
1!
#57886125
0!
#57894825
1!
#57903500
0!
#57912175
1!
#57920850
0!
#57938225
1!
#57955575
0!
#57964275
1!
#57983950
0!
#57992650
1!
#58010000
0!
#58027375
1!
#58053400
0!
#58062100
1!
#58081775
0!
#58090475
1!
#58107825
0!
#58125200
1!
#58151225
0!
#58159925
1!
#58179600
0!
#58188300
1!
#58196975
0!
#58205650
1!
#58214325
0!
#58231700
1!
#58249050
0!
#58257750
1!
#58277425
0!
#58303475
1!
#58312150
0!
#58329525
1!
#58346875
0!
#58355575
1!
#58379775
0!
#58388475
1!
#58397150
0!
#58405825
1!
#58423200
0!
#58457925
1!
#58477600
0!
#58494975
1!
#58503650
0!
#58512325
1!
#58521025
0!
#58555750
1!
#58618175
0!
#58661600
1!
#58670275
0!
#58678950
1!
#58687625
0!
#58696325
1!
#58716000
0!
#58733375
1!
#58742050
0!
#58759425
1!
#58785450
0!
#58794150
1!
#58813825
0!
#58822525
1!
#58831200
0!
#58839875
1!
#58848550
0!
#58865925
1!
#58883275
0!
#58891975
1!
#58911650
0!
#58920350
1!
#58937700
0!
#58955075
1!
#58981100
0!
#58989800
1!
#59009475
0!
#59018175
1!
#59035525
0!
#59052900
1!
#59078925
0!
#59087625
1!
#59107300
0!
#59116000
1!
#59124675
0!
#59133350
1!
#59142025
0!
#59159400
1!
#59176750
0!
#59185450
1!
#59205125
0!
#59231175
1!
#59239850
0!
#59257225
1!
#59274575
0!
#59283275
1!
#59302950
0!
#59311650
1!
#59320325
0!
#59329000
1!
#59346375
0!
#59381100
1!
#59401025
0!
#59418400
1!
#59427075
0!
#59435750
1!
#59444450
0!
#59479175
1!
#59541600
0!
#59585025
1!
#59593700
0!
#59602375
1!
#59611050
0!
#59619750
1!
#59639425
0!
#59656800
1!
#59665475
0!
#59682850
1!
#59708875
0!
#59717575
1!
#59737250
0!
#59745950
1!
#59754625
0!
#59763300
1!
#59771975
0!
#59789350
1!
#59806700
0!
#59815400
1!
#59835075
0!
#59843775
1!
#59861125
0!
#59878500
1!
#59904525
0!
#59913225
1!
#59932900
0!
#59941600
1!
#59958950
0!
#59976325
1!
#60002350
0!
#60011050
1!
#60030725
0!
#60039425
1!
#60048100
0!
#60056775
1!
#60065450
0!
#60082825
1!
#60100175
0!
#60108875
1!
#60128550
0!
#60154600
1!
#60163275
0!
#60180650
1!
#60198000
0!
#60206700
1!
#60226375
0!
#60235075
1!
#60243750
0!
#60252425
1!
#60269800
0!
#60304525
1!
#60324200
0!
#60341575
1!
#60350250
0!
#60358925
1!
#60367625
0!
#60402350
1!
#60469275
0!
#60512700
1!
#60521375
0!
#60530050
1!
#60538725
0!
#60547425
1!
#60567100
0!
#60584475
1!
#60593150
0!
#60610525
1!
#60636550
0!
#60645250
1!
#60664925
0!
#60673625
1!
#60682300
0!
#60690975
1!
#60699650
0!
#60717025
1!
#60734375
0!
#60743075
1!
#60762750
0!
#60771450
1!
#60788800
0!
#60806175
1!
#60832200
0!
#60840900
1!
#60860575
0!
#60869275
1!
#60886625
0!
#60904000
1!
#60930025
0!
#60938725
1!
#60958400
0!
#60967100
1!
#60975775
0!
#60984450
1!
#60993125
0!
#61010500
1!
#61027850
0!
#61036550
1!
#61056225
0!
#61082275
1!
#61090950
0!
#61108325
1!
#61125675
0!
#61134375
1!
#61154050
0!
#61162750
1!
#61171425
0!
#61180100
1!
#61197475
0!
#61232200
1!
#61251875
0!
#61269250
1!
#61277925
0!
#61286600
1!
#61295300
0!
#61330025
1!
#61397150
0!
#61440575
1!
#61449250
0!
#61457925
1!
#61466600
0!
#61475300
1!
#61494975
0!
#61512350
1!
#61521025
0!
#61538400
1!
#61564425
0!
#61573125
1!
#61592800
0!
#61601500
1!
#61610175
0!
#61618850
1!
#61627525
0!
#61644900
1!
#61662250
0!
#61670950
1!
#61690625
0!
#61699325
1!
#61716675
0!
#61734050
1!
#61760075
0!
#61768775
1!
#61788450
0!
#61797150
1!
#61814500
0!
#61831875
1!
#61857900
0!
#61866600
1!
#61886275
0!
#61894975
1!
#61903650
0!
#61912325
1!
#61921000
0!
#61938375
1!
#61955725
0!
#61964425
1!
#61984100
0!
#62010150
1!
#62018825
0!
#62036200
1!
#62053550
0!
#62062250
1!
#62081925
0!
#62090625
1!
#62099300
0!
#62107975
1!
#62125350
0!
#62160075
1!
#62179750
0!
#62197125
1!
#62205800
0!
#62214475
1!
#62223175
0!
#62257900
1!
#62320325
0!
#62363750
1!
#62372425
0!
#62381100
1!
#62389775
0!
#62398475
1!
#62418400
0!
#62435775
1!
#62444450
0!
#62461825
1!
#62487850
0!
#62496550
1!
#62516225
0!
#62524925
1!
#62533600
0!
#62542275
1!
#62550950
0!
#62568325
1!
#62585675
0!
#62594375
1!
#62614050
0!
#62622750
1!
#62640100
0!
#62657475
1!
#62683500
0!
#62692200
1!
#62711875
0!
#62720575
1!
#62737925
0!
#62755300
1!
#62781325
0!
#62790025
1!
#62809700
0!
#62818400
1!
#62827075
0!
#62835750
1!
#62844425
0!
#62861800
1!
#62879150
0!
#62887850
1!
#62907525
0!
#62933575
1!
#62942250
0!
#62959625
1!
#62976975
0!
